\relax 
\providecommand\hyper@newdestlabel[2]{}
\providecommand\HyperFirstAtBeginDocument{\AtBeginDocument}
\HyperFirstAtBeginDocument{\ifx\hyper@anchor\@undefined
\global\let\oldcontentsline\contentsline
\gdef\contentsline#1#2#3#4{\oldcontentsline{#1}{#2}{#3}}
\global\let\oldnewlabel\newlabel
\gdef\newlabel#1#2{\newlabelxx{#1}#2}
\gdef\newlabelxx#1#2#3#4#5#6{\oldnewlabel{#1}{{#2}{#3}}}
\AtEndDocument{\ifx\hyper@anchor\@undefined
\let\contentsline\oldcontentsline
\let\newlabel\oldnewlabel
\fi}
\fi}
\global\let\hyper@last\relax 
\gdef\HyperFirstAtBeginDocument#1{#1}
\providecommand*\HyPL@Entry[1]{}
\HyPL@Entry{0<</S/D>>}
\@writefile{lol}{\contentsline {listing}{\numberline {1}{\ignorespaces Importing the dataset and selecting the features}}{1}{listing.1}}
\@writefile{lol}{\contentsline {listing}{\numberline {2}{\ignorespaces Z-scoring normalization}}{1}{listing.2}}
\@writefile{lol}{\contentsline {listing}{\numberline {3}{\ignorespaces KMeans}}{2}{listing.3}}
\gdef\minted@oldcachelist{,
  default-pyg-prefix.pygstyle,
  default.pygstyle,
  9EB7F9D345A6646B8B5ED9708CCC65D2DA97FB53B06DD144F4A4AC1CA2A30AD7.pygtex,
  768BA2642B5B88C8E464D7571AC843D5DA97FB53B06DD144F4A4AC1CA2A30AD7.pygtex,
  1D67F5B9485C768F40F0CFE64DB7EFA8DA97FB53B06DD144F4A4AC1CA2A30AD7.pygtex}
\@writefile{lot}{\contentsline {table}{\numberline {1}{\ignorespaces n\_clusters = 5, inertia = 3392.14}}{3}{table.1}}
\@writefile{lot}{\contentsline {table}{\numberline {2}{\ignorespaces n\_clusters = 9, inertia = 2350.95}}{3}{table.2}}
