\relax 
\providecommand\hyper@newdestlabel[2]{}
\providecommand\HyperFirstAtBeginDocument{\AtBeginDocument}
\HyperFirstAtBeginDocument{\ifx\hyper@anchor\@undefined
\global\let\oldcontentsline\contentsline
\gdef\contentsline#1#2#3#4{\oldcontentsline{#1}{#2}{#3}}
\global\let\oldnewlabel\newlabel
\gdef\newlabel#1#2{\newlabelxx{#1}#2}
\gdef\newlabelxx#1#2#3#4#5#6{\oldnewlabel{#1}{{#2}{#3}}}
\AtEndDocument{\ifx\hyper@anchor\@undefined
\let\contentsline\oldcontentsline
\let\newlabel\oldnewlabel
\fi}
\fi}
\global\let\hyper@last\relax 
\gdef\HyperFirstAtBeginDocument#1{#1}
\providecommand*\HyPL@Entry[1]{}
\HyPL@Entry{0<</S/D>>}
\babel@aux{english}{}
\@writefile{lol}{\contentsline {listing}{\numberline {1}{\ignorespaces Bootstrap}}{1}{listing.1}}
\@writefile{lot}{\contentsline {table}{\numberline {1}{\ignorespaces Bootstrap results}}{1}{table.1}}
\gdef\minted@oldcachelist{,
  default-pyg-prefix.pygstyle,
  default.pygstyle,
  CE707920607448A68BC12583D146718F5FA90BD3F3AA91922B68B663888DC765.pygtex}
\@writefile{lot}{\contentsline {table}{\numberline {2}{\ignorespaces Comparison between clusters 2 and 5}}{2}{table.2}}
\@writefile{lot}{\contentsline {table}{\numberline {3}{\ignorespaces Comparison between cluster 2 and the whole dataset}}{2}{table.3}}
